Workbook: Applied R for Migration, Disaster, and Conflict Studies – Workbook
…
ged_country_year <- ged %>%
  group_by(country, year, type_of_violence) %>%
  summarize(
    total_fatalities = sum(best, na.rm = TRUE),
    n_events = n()
  ) %>%
  ungroup()

`summarise()` has grouped output by 'country', 'year'. You can override using
the `.groups` argument.

ged_country_year

# A tibble: 3,834 × 5
   country      year type_of_violence total_fatalities n_events
   <chr>       <dbl>            <dbl>            <dbl>    <int>
 1 Afghanistan  1989                1             5174      137
 2 Afghanistan  1989                2              237        8
 3 Afghanistan  1990                1             1478       39
 4 Afghanistan  1990                2               36        6
 5 Afghanistan  1991                1             3302       60
 6 Afghanistan  1991                2              251        4
 7 Afghanistan  1992                1             4287       69
 8 Afghanistan  1992                2               90        3
 9 Afghanistan  1992                3                8        4
10 Afghanistan  1993                1             4071      105
# ℹ 3,824 more rows

Group manipulation

A common example is creating lagged variables. For instance, when analyzing conflict intensity, we may want to control for the number of fatalities in the previous year. To do this, we use the lag() function.

For example, suppose we have a country-year version of the GED data and want to create a lagged fatalities variable:

ged_country_year <- ged_country_year %>%
  group_by(country) %>%
  mutate(lagged_fatalities = lag(total_fatalities)) %>%
  ungroup()

ged_country_year

# A tibble: 3,834 × 6
   country     year type_of_violence total_fatalities n_events lagged_fatalities
   <chr>      <dbl>            <dbl>            <dbl>    <int>             <dbl>
 1 Afghanist…  1989                1             5174      137                NA
 2 Afghanist…  1989                2              237        8              5174
 3 Afghanist…  1990                1             1478       39               237
 4 Afghanist…  1990                2               36        6              1478
 5 Afghanist…  1991                1             3302       60                36
 6 Afghanist…  1991                2              251        4              3302
 7 Afghanist…  1992                1             4287       69               251
 8 Afghanist…  1992                2               90        3              4287
 9 Afghanist…  1992                3                8        4                90
10 Afghanist…  1993                1             4071      105                 8
# ℹ 3,824 more rows

To ensure that the lagged values are meaningful:

ged_cy_tv1 <- ged_country_year %>%
  filter(type_of_violence == 1) %>%
  group_by(country) %>%
  mutate(lagged_fatalities = lag(total_fatalities)) %>%
  ungroup()

ged_cy_tv1

# A tibble: 1,481 × 6
   country     year type_of_violence total_fatalities n_events lagged_fatalities
   <chr>      <dbl>            <dbl>            <dbl>    <int>             <dbl>
 1 Afghanist…  1989                1             5174      137                NA
 2 Afghanist…  1990                1             1478       39              5174
 3 Afghanist…  1991                1             3302       60              1478
 4 Afghanist…  1992                1             4287       69              3302
 5 Afghanist…  1993                1             4071      105              4287
 6 Afghanist…  1994                1             8937      234              4071
 7 Afghanist…  1995                1             5499      208              8937
 8 Afghanist…  1996                1             3177      221              5499
 9 Afghanist…  1997                1             6396      195              3177
10 Afghanist…  1998                1             6256      194              6396
# ℹ 1,471 more rows
…
Data are too wide when information that should be stored as values is instead stored across multiple columns. To fix these problems, we reshape the data using pivoting.

The tidyverse provides two functions for this purpose: pivot_longer() and pivot_wider(). These functions allow us to convert data between wide and long formats so that each variable has its own column and each observation its own row.

net_migration_long <- net_migration %>%
  pivot_longer(
    cols = `2000`:`2019`,
    names_to = "year",
    values_to = "net_migration"
  )

net_migration_long

# A tibble: 852,420 × 9
    ...1 Country     iso3  GID_1   NAME_1     GID_2   NAME_2 year  net_migration
   <dbl> <chr>       <chr> <chr>   <chr>      <chr>   <chr>  <chr>         <dbl>
 1     1 Afghanistan AFG   AFG.1_1 Badakhshan AFG.1.… Bahar… 2000          12.9 
 2     1 Afghanistan AFG   AFG.1_1 Badakhshan AFG.1.… Bahar… 2001          37.5 
 3     1 Afghanistan AFG   AFG.1_1 Badakhshan AFG.1.… Bahar… 2002          22.5 
 4     1 Afghanistan AFG   AFG.1_1 Badakhshan AFG.1.… Bahar… 2003          26.7 
 5     1 Afghanistan AFG   AFG.1_1 Badakhshan AFG.1.… Bahar… 2004          20.1 
 6     1 Afghanistan AFG   AFG.1_1 Badakhshan AFG.1.… Bahar… 2005          12.4 
 7     1 Afghanistan AFG   AFG.1_1 Badakhshan AFG.1.… Bahar… 2006           9.15
 8     1 Afghanistan AFG   AFG.1_1 Badakhshan AFG.1.… Bahar… 2007           8.77
 9     1 Afghanistan AFG   AFG.1_1 Badakhshan AFG.1.… Bahar… 2008           5.17
10     1 Afghanistan AFG   AFG.1_1 Badakhshan AFG.1.… Bahar… 2009           6.46
# ℹ 852,410 more rows

We can now see that the data are tidy. Each row corresponds to a single observation.

Note, however, that the year variable is still stored as a character variable.

We can fix this using the as.numeric() function:

net_migration_long <- net_migration_long %>%
  mutate(year = as.numeric(year))

net_migration_long

# A tibble: 852,420 × 9
    ...1 Country     iso3  GID_1   NAME_1     GID_2   NAME_2  year net_migration
   <dbl> <chr>       <chr> <chr>   <chr>      <chr>   <chr>  <dbl>         <dbl>
 1     1 Afghanistan AFG   AFG.1_1 Badakhshan AFG.1.… Bahar…  2000         12.9 
 2     1 Afghanistan AFG   AFG.1_1 Badakhshan AFG.1.… Bahar…  2001         37.5 
 3     1 Afghanistan AFG   AFG.1_1 Badakhshan AFG.1.… Bahar…  2002         22.5 
 4     1 Afghanistan AFG   AFG.1_1 Badakhshan AFG.1.… Bahar…  2003         26.7 
 5     1 Afghanistan AFG   AFG.1_1 Badakhshan AFG.1.… Bahar…  2004         20.1 
 6     1 Afghanistan AFG   AFG.1_1 Badakhshan AFG.1.… Bahar…  2005         12.4 
 7     1 Afghanistan AFG   AFG.1_1 Badakhshan AFG.1.… Bahar…  2006          9.15
 8     1 Afghanistan AFG   AFG.1_1 Badakhshan AFG.1.… Bahar…  2007          8.77
 9     1 Afghanistan AFG   AFG.1_1 Badakhshan AFG.1.… Bahar…  2008          5.17
10     1 Afghanistan AFG   AFG.1_1 Badakhshan AFG.1.… Bahar…  2009          6.46
# ℹ 852,410 more rows
…
The two functions pivot_longer() and pivot_wider() are inverses of each other, meaning that one can undo the operation of the other.

For example, we first pivot the net_migration data from wide to long format.

Now suppose we want to return the data to a wide format, with one column per year. We can do this using pivot_wider():

net_migration_wide <- net_migration_long %>%
  pivot_wider(
    names_from = year,
    values_from = net_migration
  )
net_migration_wide

# A tibble: 42,621 × 27
    ...1 Country     iso3  GID_1 NAME_1 GID_2 NAME_2 `2000` `2001` `2002` `2003`
   <dbl> <chr>       <chr> <chr> <chr>  <chr> <chr>   <dbl>  <dbl>  <dbl>  <dbl>
 1     1 Afghanistan AFG   AFG.… Badak… AFG.… Bahar…  12.9   37.5    22.5   26.7
 2     2 Afghanistan AFG   AFG.… Badak… AFG.… Darwaz  19.4   17.2    45.0   28.8
 3     3 Afghanistan AFG   AFG.… Badak… AFG.… Fayza…  26.5   25.9    30.7   23.6
 4     4 Afghanistan AFG   AFG.… Badak… AFG.… Ishka… -38.9   47.3    44.6   24.8
 5     5 Afghanistan AFG   AFG.… Badak… AFG.… Jurm    27.4   27.0    34.5   25.1
 6     6 Afghanistan AFG   AFG.… Badak… AFG.… Khwah…   5.90  32.7    34.2   37.0
 7     7 Afghanistan AFG   AFG.… Badak… AFG.… Kishim  15.7   25.9    29.7   28.0
 8     8 Afghanistan AFG   AFG.… Badak… AFG.… Kuran…  52.1   19.1    29.3   43.0
 9     9 Afghanistan AFG   AFG.… Badak… AFG.… Ragh    28.0   24.3    29.9   26.2
10    10 Afghanistan AFG   AFG.… Badak… AFG.… Shahr…  -8.80   8.38   40.5   34.5
# ℹ 42,611 more rows
# ℹ 16 more variables: `2004` <dbl>, `2005` <dbl>, `2006` <dbl>, `2007` <dbl>,
#   `2008` <dbl>, `2009` <dbl>, `2010` <dbl>, `2011` <dbl>, `2012` <dbl>,
#   `2013` <dbl>, `2014` <dbl>, `2015` <dbl>, `2016` <dbl>, `2017` <dbl>,
#   `2018` <dbl>, `2019` <dbl>
…
We can change this either by reordering variables manually using select(), or by using the names_sort argument inside pivot_wider().

For example, we can ensure that the year variables are ordered numerically when pivoting wider:

net_migration_long_sorted <- net_migration_wide %>%
  pivot_longer(
    cols = -c(Country, iso3, GID_1, NAME_1, GID_2, NAME_2),
    names_to = "year",
    values_to = "net_migration"
  )

net_migration_long_sorted

# A tibble: 895,041 × 8
   Country     iso3  GID_1   NAME_1     GID_2     NAME_2  year  net_migration
   <chr>       <chr> <chr>   <chr>      <chr>     <chr>   <chr>         <dbl>
 1 Afghanistan AFG   AFG.1_1 Badakhshan AFG.1.1_1 Baharak ...1           1   
 2 Afghanistan AFG   AFG.1_1 Badakhshan AFG.1.1_1 Baharak 2000          12.9 
 3 Afghanistan AFG   AFG.1_1 Badakhshan AFG.1.1_1 Baharak 2001          37.5 
 4 Afghanistan AFG   AFG.1_1 Badakhshan AFG.1.1_1 Baharak 2002          22.5 
 5 Afghanistan AFG   AFG.1_1 Badakhshan AFG.1.1_1 Baharak 2003          26.7 
 6 Afghanistan AFG   AFG.1_1 Badakhshan AFG.1.1_1 Baharak 2004          20.1 
 7 Afghanistan AFG   AFG.1_1 Badakhshan AFG.1.1_1 Baharak 2005          12.4 
 8 Afghanistan AFG   AFG.1_1 Badakhshan AFG.1.1_1 Baharak 2006           9.15
 9 Afghanistan AFG   AFG.1_1 Badakhshan AFG.1.1_1 Baharak 2007           8.77
10 Afghanistan AFG   AFG.1_1 Badakhshan AFG.1.1_1 Baharak 2008           5.17
# ℹ 895,031 more rows
…
Merging datasets

Before aggregating and merging, we need to make sure that the merge keys have the same names in both datasets. In GDIS, the country identifier is stored as gwno, while in GED it is stored as gwnoa.

ged_cy <- ged_cy %>%
  rename(gwno = gwnoa)

We can now safely merge the two datasets using a left_join():

countryyear_merged <- gdis_cy %>%
  left_join(ged_cy, by = c("gwno", "year"))

countryyear_merged

# A tibble: 1,949 × 5
    gwno  year n_disasters n_conflict_events total_fatalities
   <dbl> <dbl>       <int>             <int>            <dbl>
 1     2  2000          77                 1               19
 2     2  2001         119                41             1583
 3     2  2002         233                62              880
 4     2  2003         300                13               65
 5     2  2004         118                88              378
 6     2  2005          70                48              108
 7     2  2006          96                29              246
 8     2  2007         138                31              186
 9     2  2008         139                47              291
10     2  2009          81                53              493
# ℹ 1,939 more rows
…
Here, we aggregate: - GDIS to an admin1–year level (more detailed) - GED to a country–year level (more aggregated)

Then we merge the GED country-year information onto each admin1–year observation in GDIS.

gdis_admin1_y <- gdis %>%
  rename(gwnoa = gwno) %>%
  group_by(gwnoa, year, adm1) %>%
  summarize(
    n_disasters = n(),
    .groups = "drop"
  )

gdis_admin1_y

# A tibble: 16,220 × 4
   gwnoa  year adm1        n_disasters
   <dbl> <dbl> <chr>             <int>
 1     2  2000 Alabama               5
 2     2  2000 Arkansas              1
 3     2  2000 California            3
 4     2  2000 Colorado              1
 5     2  2000 Connecticut           1
 6     2  2000 Florida               7
 7     2  2000 Georgia               5
 8     2  2000 Hawaii                1
 9     2  2000 Iowa                  1
10     2  2000 Kentucky              2
# ℹ 16,210 more rows

ged_country_y <- ged %>%
  group_by(gwnoa, year) %>%
  summarize(
    n_conflict_events = n(),
    total_fatalities = sum(best, na.rm = TRUE),
    .groups = "drop"
  )

ged_country_y

# A tibble: 1,729 × 4
   gwnoa  year n_conflict_events total_fatalities
   <dbl> <dbl>             <int>            <dbl>
 1     2  2000                 1               19
 2     2  2001                41             1583
 3     2  2002                62              880
 4     2  2003                13               65
 5     2  2004                88              378
 6     2  2005                48              108
 7     2  2006                29              246
 8     2  2007                31              186
 9     2  2008                47              291
10     2  2009                53              493
# ℹ 1,719 more rows

Join different levels:

gdis_admin1_with_ged <- gdis_admin1_y %>%
  left_join(ged_country_y, by = c("gwnoa", "year"))

gdis_admin1_with_ged

# A tibble: 16,220 × 6
   gwnoa  year adm1        n_disasters n_conflict_events total_fatalities
   <dbl> <dbl> <chr>             <int>             <int>            <dbl>
 1     2  2000 Alabama               5                 1               19
 2     2  2000 Arkansas              1                 1               19
 3     2  2000 California            3                 1               19
 4     2  2000 Colorado              1                 1               19
 5     2  2000 Connecticut           1                 1               19
 6     2  2000 Florida               7                 1               19
 7     2  2000 Georgia               5                 1               19
 8     2  2000 Hawaii                1                 1               19
 9     2  2000 Iowa                  1                 1               19
10     2  2000 Kentucky              2                 1               19
# ℹ 16,210 more rows
…
